COMP/STAT 112: Introduction to Data Science
…
For our example here, the Declaration of Independence is the document, and a word is the token. However, a document could be a tweet, a novel chapter, a Wikipedia article, or anything else that seems interesting. Other possibilities for tokens include sentences, lines, paragraphs, characters, ngrams, and more.2

Later on, we will also give an example of how to perform textual analyses comparing two or more documents.

We will be using the tidy text format, which has one row for each unit of analysis. Our work will focus on word-level analysis within each document, so each row will contain a document and word.

TidyText’s unnest_tokens function takes a data frame containing one row per document and breaks it into a data frame containing one row per token.

tidy_us_dec <- us_dec_df %>%
  unnest_tokens(word, text)

tidy_us_dec

# A tibble: 1,539 × 2
   title                       word        
   <chr>                       <chr>       
 1 Declaration of Independence the         
 2 Declaration of Independence declaration 
 3 Declaration of Independence of          
 4 Declaration of Independence independence
 5 Declaration of Independence in          
 6 Declaration of Independence congress    
 7 Declaration of Independence july        
 8 Declaration of Independence 4           
 9 Declaration of Independence 1776        
10 Declaration of Independence the         
# ℹ 1,529 more rows
…
We can now analyze this tidy text data frame. For example, we can determine the total number of words.

nrow(tidy_us_dec)

[1] 1539

We can also find the most frequently used words by using dplyr’s count function, which creates a frequency table for (in our case) words:

# Create and display frequency count table
all_us_dec_counts <- tidy_us_dec %>%
  count(word, sort = TRUE)
all_us_dec_counts

# A tibble: 674 × 2
   word      n
   <chr> <int>
 1 the      84
 2 of       83
 3 to       67
 4 and      58
 5 for      28
 6 our      26
 7 has      20
 8 in       20
 9 their    20
10 he       19
# ℹ 664 more rows
…
nrow(all_us_dec_counts)

[1] 674

Stop Words

Notice that the most frequent words are common words that are present in any document and not particularly descriptive of the topic of the document. These common words are called stop words, and they are typically removed from textual analysis.

TidyText provides a built in set of 1,149 different stop words. We can load the dataset and use anti_join to remove rows associated with words in the dataset.

# Load stop words dataset and display it
data(stop_words)
stop_words

# A tibble: 1,149 × 2
   word        lexicon
   <chr>       <chr>  
 1 a           SMART  
 2 a's         SMART  
 3 able        SMART  
 4 about       SMART  
 5 above       SMART  
 6 according   SMART  
 7 accordingly SMART  
 8 across      SMART  
 9 actually    SMART  
10 after       SMART  
# ℹ 1,139 more rows

# Create and display frequency count table after removing stop words from the dataset
us_dec_counts <- tidy_us_dec %>%
  anti_join(stop_words) %>%
  count(word, sort = TRUE)
us_dec_counts

# A tibble: 525 × 2
   word           n
   <chr>      <int>
 1 people        10
 2 laws           9
 3 government     6
 4 john           6
 5 thomas         6
 6 william        6
 7 free           5
 8 george         5
 9 powers         5
10 time           5
# ℹ 515 more rows
…
# Declare a string containing the Macalester Statement of Purpose & Belief
statement <- "At Macalester College we believe that education is a fundamentally transforming experience. As a community of learners, the possibilities for this personal, social, and intellectual transformation extend to us all. We affirm the importance of the intellectual growth of the students, staff and faculty through individual and collaborative endeavor. We believe that this can best be achieved through an environment that values the diverse cultures of our world and recognizes our responsibility to provide a supportive and respectful environment for students, staff and faculty of all cultures and backgrounds.

We expect students to develop a broad understanding of the liberal arts while they are at Macalester. Students should follow a primary course of study in order to acquire an understanding of disciplinary theory and methodology; they should be able to apply their understanding of theories to address problems in the larger community. Students should develop the ability to use information and communication resources effectively, be adept at critical, analytical and logical thinking, and express themselves well in both oral and written forms. Finally, students should be prepared to take responsibility for their personal, social and intellectual choices.

We believe that the benefit of the educational experience at Macalester is the development of individuals who make informed judgments and interpretations of the broader world around them and choose actions or beliefs for which they are willing to be held accountable. We expect them to develop the ability to seek and use knowledge and experience in contexts that challenge and inform their suppositions about the world. We are committed to helping students grow intellectually and personally within an environment that models and promotes academic excellence and ethical behavior. The education a student begins at Macalester provides the basis for continuous transformation through learning and service."

# Expand this into a tidy data frame, with one row per word
tidy_df <- tibble(college = c("Macalester College"), text = statement) %>%
  unnest_tokens(word, text)

# Display the data frame and the most popular words
tidy_df

# A tibble: 293 × 2
   college            word         
   <chr>              <chr>        
 1 Macalester College at           
 2 Macalester College macalester   
 3 Macalester College college      
 4 Macalester College we           
 5 Macalester College believe      
 6 Macalester College that         
 7 Macalester College education    
 8 Macalester College is           
 9 Macalester College a            
10 Macalester College fundamentally
# ℹ 283 more rows

tidy_df %>%
  anti_join(stop_words) %>%
  count(word)

# A tibble: 105 × 2
   word            n
   <chr>       <int>
 1 ability         2
 2 academic        1
 3 accountable     1
 4 achieved        1
 5 acquire         1
 6 actions         1
 7 address         1
 8 adept           1
 9 affirm          1
10 analytical      1
# ℹ 95 more rows
…
